\relax 
\citation{dasgupta}
\citation{dasgupta}
\citation{bonneau}
\citation{dasgupta}
\citation{Deser2012}
\citation{georgakakos}
\citation{haroz:2008}
\citation{gleckler}
\citation{rau}
\citation{bonneau}
\citation{bonneau}
\citation{sacha}
\citation{liu}
\citation{correa2009framework}
\citation{wu}
\citation{haroz:seeing}
\citation{haroz:2008}
\citation{li}
\citation{potter:2009}
\citation{sanyal}
\citation{potter:2009}
\citation{potter:2009}
\citation{li}
\citation{chen2015uncertainty}
\citation{biswas2015uncertainty}
\citation{gomez2014dissecting}
\citation{gosink}
\citation{liu2017uncertainty}
\@writefile{toc}{\contentsline {section}{\numberline {1}Introduction}{1}}
\@writefile{toc}{\contentsline {section}{\numberline {2}Related Work}{1}}
\citation{habib2016hacc}
\citation{behroozi}
\citation{avila2014sussing}
\citation{lacey1992}
\citation{behroozi}
\citation{tinker}
\citation{murray2013}
\citation{taylor2012overview}
\citation{debusschere}
\citation{randall}
\citation{van2011representative}
\citation{mcsweeney}
\citation{vavrus}
\citation{deser}
\citation{georgakakos}
\citation{knutti}
\citation{vavrus}
\citation{mcsweeney}
\citation{vavrus}
\citation{potter:2009}
\citation{cheng}
\citation{cheng}
\citation{gregory}
\@writefile{toc}{\contentsline {section}{\numberline {3}Methods}{2}}
\@writefile{toc}{\contentsline {subsection}{\numberline {3.1}Data}{2}}
\@writefile{toc}{\contentsline {subsubsection}{\numberline {3.1.1}Dark Matter Simulations}{2}}
\@writefile{toc}{\contentsline {subsubsection}{\numberline {3.1.2}Climate Models}{2}}
\@writefile{toc}{\contentsline {subsection}{\numberline {3.2}Bootstrapping}{2}}
\citation{rau}
\citation{rau}
\citation{vavrus}
\citation{northrop}
\citation{vavrus}
\citation{yt}
\citation{yt}
\citation{brodlie2012review}
\@writefile{toc}{\contentsline {subsection}{\numberline {3.3}Data Processing}{3}}
\@writefile{toc}{\contentsline {subsection}{\numberline {3.4}Uncertainty Measurement}{3}}
\@writefile{lof}{\contentsline {figure}{\numberline {1}{\ignorespaces A (PLACEHOLDER!) schematic diagram of our uncertainty modeling approach. After training a model with several subsampled, bootstrapped datasets, we can input new downsampled data and yield a prediction of uncertainty. This prediction can be compared against ground truth data for our own validation.\relax }}{3}}
\providecommand*\caption@xref[2]{\@setref\relax\@undefined{#1}}
\newlabel{scheme}{{1}{3}}
\@writefile{toc}{\contentsline {subsection}{\numberline {3.5}Modeling}{3}}
\citation{rau}
\citation{li}
\citation{sacha}
\@writefile{toc}{\contentsline {subsection}{\numberline {3.6}Validation}{4}}
\@writefile{toc}{\contentsline {subsection}{\numberline {3.7}Visualization and Interface}{4}}
\@writefile{toc}{\contentsline {section}{\numberline {4}Results}{4}}
\@writefile{toc}{\contentsline {subsection}{\numberline {4.1}Performance}{4}}
\citation{knutti}
\bibstyle{abbrv}
\bibdata{references}
\bibcite{avila2014sussing}{1}
\bibcite{behroozi}{2}
\bibcite{biswas2015uncertainty}{3}
\bibcite{bonneau}{4}
\bibcite{brodlie2012review}{5}
\bibcite{chen2015uncertainty}{6}
\bibcite{cheng}{7}
\bibcite{correa2009framework}{8}
\bibcite{dasgupta}{9}
\bibcite{debusschere}{10}
\bibcite{Deser2012}{11}
\bibcite{deser}{12}
\bibcite{georgakakos}{13}
\@writefile{toc}{\contentsline {subsection}{\numberline {4.2}Use Cases}{5}}
\@writefile{toc}{\contentsline {section}{\numberline {5}Discussion}{5}}
\@writefile{toc}{\contentsline {section}{\numberline {6}Conclusion}{5}}
\@writefile{toc}{\contentsline {section}{\numberline {7}Acknolwedgments}{5}}
\bibcite{gleckler}{14}
\bibcite{gomez2014dissecting}{15}
\bibcite{gosink}{16}
\bibcite{gregory}{17}
\bibcite{habib2016hacc}{18}
\bibcite{haroz:2008}{19}
\bibcite{haroz:seeing}{20}
\bibcite{knutti}{21}
\bibcite{lacey1992}{22}
\bibcite{li}{23}
\bibcite{liu2017uncertainty}{24}
\bibcite{liu}{25}
\bibcite{mcsweeney}{26}
\bibcite{murray2013}{27}
\bibcite{northrop}{28}
\bibcite{potter:2009}{29}
\bibcite{randall}{30}
\bibcite{rau}{31}
\bibcite{sacha}{32}
\bibcite{sanyal}{33}
\@writefile{lof}{\contentsline {figure}{\numberline {2}{\ignorespaces PLACEHOLDER - preliminary results for one test. Blue represents predicted uncertainties; green represents ground truth. Because we need to generate much more data to properly measure the ground truth, the currently shown ground truth variance is underestimated. However, we can see that for lower mass bins, for which our ground truth data are better, our predictions are close.\relax }}{6}}
\newlabel{placeholder_results}{{2}{6}}
\bibcite{taylor2012overview}{34}
\bibcite{tinker}{35}
\bibcite{yt}{36}
\bibcite{van2011representative}{37}
\bibcite{vavrus}{38}
\bibcite{wu}{39}
