mass,variance,min,max,median,lower,upper
4264662934.125634,2.177880e-10,9.147224e-04,9.817138e-04,9.444964e-04,9.378799e-04,9.576898e-04
4723190385.149717,1.592947e-10,7.832207e-04,8.493851e-04,8.159090e-04,8.058367e-04,8.225747e-04
5231017728.472478,1.473575e-10,6.922447e-04,7.493115e-04,7.162293e-04,7.062751e-04,7.228457e-04
5793445583.228612,1.197687e-10,5.499913e-04,6.020958e-04,5.779930e-04,5.702738e-04,5.859781e-04
6416344479.802036,7.978730e-11,5.053304e-04,5.549536e-04,5.268338e-04,5.201879e-04,5.323672e-04
7106216135.466490,6.767661e-11,4.681129e-04,5.056848e-04,4.827833e-04,4.772105e-04,4.896655e-04
7870261318.251746,7.684716e-11,3.928509e-04,4.377088e-04,4.152208e-04,4.093920e-04,4.217979e-04
8716455007.388201,6.104555e-11,3.399194e-04,3.890701e-04,3.632542e-04,3.570513e-04,3.672122e-04
9653629634.841673,4.322978e-11,3.043561e-04,3.381472e-04,3.198141e-04,3.142808e-04,3.234079e-04
10691567276.800207,3.830853e-11,2.712739e-04,3.010479e-04,2.834040e-04,2.803420e-04,2.884550e-04
11841101757.393061,4.293238e-11,2.423270e-04,2.729280e-04,2.555599e-04,2.505975e-04,2.597049e-04
13114231730.382870,3.254379e-11,2.066455e-04,2.365376e-04,2.207448e-04,2.170822e-04,2.249589e-04
14524245919.160601,3.043352e-11,1.811250e-04,2.051095e-04,1.932748e-04,1.893660e-04,1.981781e-04
16085861822.276472,2.723987e-11,1.604486e-04,1.836061e-04,1.720274e-04,1.672422e-04,1.753356e-04
17815379332.294170,2.294292e-11,1.393784e-04,1.632842e-04,1.502089e-04,1.463887e-04,1.530051e-04
19730850871.415661,1.812738e-11,1.253184e-04,1.463887e-04,1.372911e-04,1.339828e-04,1.397722e-04
21852269819.724892,1.735133e-11,1.058630e-04,1.323287e-04,1.182688e-04,1.157876e-04,1.215770e-04
24201779202.834743,1.335026e-11,9.593833e-05,1.133065e-04,1.033818e-04,1.011961e-04,1.058630e-04
26803902817.182766,1.061228e-11,8.435957e-05,1.000736e-04,9.263012e-05,9.014895e-05,9.428423e-05
29685801205.426643,7.423747e-12,7.278081e-05,8.766779e-05,8.022430e-05,7.857019e-05,8.187841e-05
32877555153.765854,6.312387e-12,6.388013e-05,7.608902e-05,6.947259e-05,6.782833e-05,7.112670e-05
36412479670.291603,5.634995e-12,5.541266e-05,6.699142e-05,6.161557e-05,5.988269e-05,6.285615e-05
40327471721.617279,3.999799e-12,4.879622e-05,6.037499e-05,5.458560e-05,5.293150e-05,5.541266e-05
44663395357.408531,3.677869e-12,4.300684e-05,5.293150e-05,4.796917e-05,4.714211e-05,4.962328e-05
49465508242.682137,2.950602e-12,3.721746e-05,4.962328e-05,4.300684e-05,4.199272e-05,4.383389e-05
54783934049.944000,2.672160e-12,3.308218e-05,4.217979e-05,3.804451e-05,3.721746e-05,3.887157e-05
60674185641.924171,2.721781e-12,2.894691e-05,3.721746e-05,3.308218e-05,3.225513e-05,3.397816e-05
67197744505.798691,2.482689e-12,2.481164e-05,3.308218e-05,2.894691e-05,2.811986e-05,3.021703e-05
74422702486.945389,2.925332e-12,2.040068e-05,2.977397e-05,2.481164e-05,2.395504e-05,2.563869e-05
82424472520.538406,2.514289e-12,1.654109e-05,2.398458e-05,2.067637e-05,1.984931e-05,2.150342e-05
91286575779.490158,1.461716e-12,1.488698e-05,2.067637e-05,1.736815e-05,1.654109e-05,1.819520e-05
101101513454.856140,7.469162e-13,1.323287e-05,1.736815e-05,1.488698e-05,1.415839e-05,1.571404e-05
111971732268.206482,1.014193e-12,1.075171e-05,1.571404e-05,1.323287e-05,1.240582e-05,1.405993e-05
124010693793.830154,7.746923e-13,9.097601e-06,1.323287e-05,1.075171e-05,1.075171e-05,1.157876e-05
137344058752.172150,3.570920e-13,7.443491e-06,1.157876e-05,9.097601e-06,9.097601e-06,9.924655e-06
152110998635.979675,1.874752e-13,7.443491e-06,9.924655e-06,8.270546e-06,8.270546e-06,9.097601e-06
168465648359.681854,2.165691e-13,6.616437e-06,9.097601e-06,8.270546e-06,7.955478e-06,8.270546e-06
186578715094.537140,6.134676e-13,4.962328e-06,9.097601e-06,6.636129e-06,6.616437e-06,7.443491e-06
206639260082.294098,4.367886e-13,4.135273e-06,7.443491e-06,5.789382e-06,4.962328e-06,5.789382e-06
228856672025.650696,2.345305e-13,4.135273e-06,5.789382e-06,4.962328e-06,4.135273e-06,4.962328e-06
253462852653.450104,1.247854e-13,2.481164e-06,4.962328e-06,4.135273e-06,4.135273e-06,4.135273e-06
280714637273.165283,2.291939e-13,2.481164e-06,4.135273e-06,3.308218e-06,3.308218e-06,4.135273e-06
310896475576.033386,1.913645e-13,2.481164e-06,4.135273e-06,2.481164e-06,2.481164e-06,3.308218e-06
344323400676.614929,9.720353e-15,1.654109e-06,3.308218e-06,2.481164e-06,2.481164e-06,2.481164e-06
381344317377.164368,1.875758e-13,8.270546e-07,2.481164e-06,1.654109e-06,1.654109e-06,2.481164e-06
422345643979.150696,1.794293e-13,8.270546e-07,2.481164e-06,1.654109e-06,8.270546e-07,1.654109e-06
467755345654.573181,1.126726e-13,0.000000e+00,8.270546e-07,8.270546e-07,8.270546e-07,8.270546e-07
518047401476.763306,4.093924e-14,0.000000e+00,8.270546e-07,0.000000e+00,0.000000e+00,0.000000e+00
573746751736.783813,0.000000e+00,0.000000e+00,0.000000e+00,0.000000e+00,0.000000e+00,0.000000e+00
