1.4263948987e+27,1.42640808471e+27,1.42641934749e+27,1.4264241396e+27,1.42641839197e+27,1.42640038677e+27,1.42637793317e+27,1.42636253353e+27,1.42636076114e+27,1.42637002204e+27,1.4263828268e+27,1.42639434296e+27,1.42640508912e+27,1.42641691e+27,1.42642914266e+27,1.42643365611e+27,1.42642833312e+27,1.42641087784e+27,1.42638865979e+27,1.42637400386e+27,1.42637320199e+27,1.42638351716e+27,1.4263950662e+27,1.42640704416e+27,1.42641776275e+27,1.42642926269e+27,1.42643908042e+27,1.42644516343e+27,1.42644015746e+27,1.42642365772e+27,1.42640183738e+27,1.42638632672e+27,1.42638426004e+27,1.42639424313e+27,1.42640774149e+27,1.42641907717e+27,1.42642803785e+27,1.42643932172e+27,1.42644984449e+27,1.42645559179e+27,1.42644951721e+27,1.42643258763e+27,1.42641044409e+27,1.42639587393e+27,1.42639475668e+27,1.42640348414e+27,1.42641511581e+27,1.42642677246e+27
1.42647943822e+27,1.4264882154e+27,1.42649657731e+27,1.42650145143e+27,1.42649513367e+27,1.42647743296e+27,1.42645572963e+27,1.4264397779e+27,1.42643709914e+27,1.4264461101e+27,1.42645910782e+27,1.42647036979e+27,1.42648110517e+27,1.42649246558e+27,1.42650437567e+27,1.42650979309e+27,1.42650349567e+27,1.42648678737e+27,1.42646599026e+27,1.42645092974e+27,1.42644987583e+27,1.4264588686e+27,1.42647098704e+27,1.42648279952e+27,1.42649176785e+27,1.42650369224e+27,1.42651419446e+27,1.42651943045e+27,1.42651620803e+27,1.42649995342e+27,1.42647873651e+27,1.42646383786e+27,1.42646313666e+27,1.42647392113e+27,1.42648797284e+27,1.42649957835e+27,1.42651063597e+27,1.42652094376e+27,1.42653169129e+27,1.42653758883e+27,1.42653264581e+27,1.42651636261e+27,1.42649546167e+27,1.42647951052e+27,1.42647611358e+27,1.42648553915e+27,1.42649605828e+27,1.42650690195e+27
1.45119768533e+27,1.45120601998e+27,1.4512180296e+27,1.45122479397e+27,1.4512209273e+27,1.45120540843e+27,1.45118470487e+27,1.45116989716e+27,1.45117123867e+27,1.45118085747e+27,1.45119231642e+27,1.45120207741e+27,1.45120998428e+27,1.45121763566e+27,1.45122661621e+27,1.45123066646e+27,1.45122767719e+27,1.45121353365e+27,1.4511930879e+27,1.45117995823e+27,1.45118062721e+27,1.45119032247e+27,1.45120284002e+27,1.451211433e+27,1.45122012432e+27,1.45122917027e+27,1.45123859128e+27,1.45124384875e+27,1.45124095415e+27,1.4512256097e+27,1.45120463025e+27,1.45119054142e+27,1.45119069869e+27,1.45120126132e+27,1.45121419117e+27,1.45122328914e+27,1.45123103969e+27,1.45123990956e+27,1.45125169781e+27,1.4512578704e+27,1.45125314525e+27,1.45123640447e+27,1.45121493336e+27,1.45120156317e+27,1.45120247784e+27,1.45121140746e+27,1.45122381266e+27,1.45123248851e+27
1.49127732905e+27,1.49128636451e+27,1.49129574573e+27,1.49129956073e+27,1.49129295427e+27,1.49127550033e+27,1.49125499111e+27,1.49124115246e+27,1.49124196147e+27,1.49125168184e+27,1.4912631027e+27,1.49127385833e+27,1.49128468116e+27,1.4912954173e+27,1.49130507309e+27,1.49130986342e+27,1.49130467821e+27,1.4912884585e+27,1.49126577372e+27,1.49125097125e+27,1.49125085272e+27,1.49126019765e+27,1.49127302127e+27,1.49128489343e+27,1.49129376132e+27,1.4913048727e+27,1.49131240582e+27,1.49131635402e+27,1.49130649983e+27,1.49128677094e+27,1.49126461809e+27,1.49125046327e+27,1.49125257499e+27,1.49126118995e+27,1.49127331526e+27,1.4912868403e+27,1.49129528729e+27,1.49130648453e+27,1.49131591041e+27,1.49131790388e+27,1.49131012969e+27,1.49129337027e+27,1.49127245188e+27,1.4912565931e+27,1.49125823459e+27,1.491269027e+27,1.49128215651e+27,1.49129356817e+27
1.41936103547e+27,1.41937056431e+27,1.41937603593e+27,1.41938087233e+27,1.41938037596e+27,1.41936788823e+27,1.4193501548e+27,1.41933604426e+27,1.41933469502e+27,1.41934179006e+27,1.41935030167e+27,1.41936205189e+27,1.41937313665e+27,1.4193794766e+27,1.41938248049e+27,1.41938761678e+27,1.41938395555e+27,1.41936976495e+27,1.41935466019e+27,1.41934263915e+27,1.41933957181e+27,1.41934803073e+27,1.41936068301e+27,1.41937281035e+27,1.41938415358e+27,1.41939306415e+27,1.41940079528e+27,1.41940414669e+27,1.41940315281e+27,1.41939067732e+27,1.41937050906e+27,1.41935934479e+27,1.41935876887e+27,1.41936304756e+27,1.41937410227e+27,1.41938415507e+27,1.41939437018e+27,1.41940026184e+27,1.41940511263e+27,1.41940780315e+27,1.4194051221e+27,1.41939311108e+27,1.41937452119e+27,1.41936262851e+27,1.41935964817e+27,1.41936808553e+27,1.41937623874e+27,1.41938736034e+27
1.43027151717e+27,1.43028447224e+27,1.43029758381e+27,1.43030277982e+27,1.43029701377e+27,1.43028001671e+27,1.43025915753e+27,1.43024629889e+27,1.43024420796e+27,1.43025491749e+27,1.43026781347e+27,1.43028031457e+27,1.43029188037e+27,1.43030191511e+27,1.43031139193e+27,1.43031349519e+27,1.4303060398e+27,1.4302890295e+27,1.43026984253e+27,1.4302561301e+27,1.43025374585e+27,1.43026310384e+27,1.43027528469e+27,1.4302857622e+27,1.43029531143e+27,1.43030758769e+27,1.43031899985e+27,1.43032202355e+27,1.43031586824e+27,1.43029886863e+27,1.43027830955e+27,1.43026461344e+27,1.43026446883e+27,1.43027378401e+27,1.43028705216e+27,1.43029936129e+27,1.4303097113e+27,1.43032080608e+27,1.43033315312e+27,1.43033732198e+27,1.43032945833e+27,1.43031136575e+27,1.43028969793e+27,1.4302755166e+27,1.43027434642e+27,1.43028376085e+27,1.43029574084e+27,1.43030716295e+27
1.45859855353e+27,1.4586088758e+27,1.45861786289e+27,1.45862336728e+27,1.45861894083e+27,1.45860515683e+27,1.45858633167e+27,1.45857203364e+27,1.45857227057e+27,1.45858310563e+27,1.45859379628e+27,1.45860267063e+27,1.45861193253e+27,1.45862088666e+27,1.45862885346e+27,1.4586337351e+27,1.45862830915e+27,1.45861249334e+27,1.4585930906e+27,1.45857868362e+27,1.45857883234e+27,1.45858785517e+27,1.45859992159e+27,1.45860988725e+27,1.4586180015e+27,1.45862743427e+27,1.45863499371e+27,1.45863857794e+27,1.45863357962e+27,1.45861801129e+27,1.45859950237e+27,1.45858452983e+27,1.45858430237e+27,1.45859306865e+27,1.4586023234e+27,1.45861236208e+27,1.45862058176e+27,1.45863084245e+27,1.45863947346e+27,1.45864527568e+27,1.45864057421e+27,1.45862587486e+27,1.45860782318e+27,1.45859334487e+27,1.45859435214e+27,1.45860564457e+27,1.4586167542e+27,1.45862788061e+27
1.46249853103e+27,1.46251230916e+27,1.46252124555e+27,1.46252484601e+27,1.46251846215e+27,1.46250407164e+27,1.46248630167e+27,1.46247463614e+27,1.46247394128e+27,1.46248244081e+27,1.46249474372e+27,1.46250743034e+27,1.46252020577e+27,1.46253240816e+27,1.46254394063e+27,1.46254838629e+27,1.4625437774e+27,1.46252934941e+27,1.46251050589e+27,1.46249732877e+27,1.46249813885e+27,1.46250685847e+27,1.46251862289e+27,1.46253166454e+27,1.46254388565e+27,1.46255630178e+27,1.46256796316e+27,1.4625732909e+27,1.46256764088e+27,1.46255345117e+27,1.46253363496e+27,1.46252110785e+27,1.46252107765e+27,1.46253006447e+27,1.46254130005e+27,1.46255209513e+27,1.46256433267e+27,1.462575769e+27,1.46258639616e+27,1.46259149069e+27,1.46258692445e+27,1.46257189972e+27,1.46255380285e+27,1.46254351626e+27,1.4625424115e+27,1.462550912e+27,1.46256276816e+27,1.46257488666e+27
1.50631697007e+27,1.506327904e+27,1.50633767818e+27,1.50634170576e+27,1.50633517087e+27,1.5063179402e+27,1.50629834144e+27,1.50628677632e+27,1.50628572507e+27,1.50629384155e+27,1.50630651178e+27,1.50631963148e+27,1.50633479744e+27,1.50634793963e+27,1.50635549713e+27,1.50635686041e+27,1.5063489952e+27,1.50633223292e+27,1.50631273162e+27,1.50629870324e+27,1.50629930004e+27,1.50630607894e+27,1.50631873435e+27,1.50633263608e+27,1.50634656784e+27,1.50635963858e+27,1.50636936177e+27,1.50637111984e+27,1.50636561099e+27,1.5063489564e+27,1.50633111977e+27,1.50631901865e+27,1.50631820969e+27,1.50632768424e+27,1.50634016378e+27,1.50635305282e+27,1.50636786871e+27,1.50638027678e+27,1.50639163704e+27,1.50639608076e+27,1.5063887106e+27,1.50637130759e+27,1.50635176261e+27,1.50633985587e+27,1.50633995358e+27,1.50634673862e+27,1.50635924119e+27,1.50637327403e+27
1.46847914464e+27,1.46848859439e+27,1.46849926193e+27,1.46850374159e+27,1.46849745379e+27,1.46848054701e+27,1.4684598754e+27,1.46844707151e+27,1.46844736885e+27,1.46845815728e+27,1.46847151984e+27,1.46848312351e+27,1.46849305301e+27,1.46850219765e+27,1.46851293633e+27,1.46851712351e+27,1.46851017674e+27,1.46849316058e+27,1.46847392663e+27,1.46846075795e+27,1.46846218559e+27,1.46847389465e+27,1.46848793639e+27,1.46850020055e+27,1.46850995118e+27,1.46852004796e+27,1.46852945622e+27,1.46853435123e+27,1.4685281277e+27,1.46851051649e+27,1.46848972563e+27,1.46847701626e+27,1.46847790767e+27,1.46848891291e+27,1.46850235309e+27,1.46851391297e+27,1.46852479684e+27,1.46853227208e+27,1.46854208231e+27,1.46854793626e+27,1.46854147056e+27,1.46852277532e+27,1.46850091084e+27,1.46848980414e+27,1.46849067241e+27,1.46850210203e+27,1.46851546188e+27,1.46852553737e+27
1.61294178591e+27,1.61295038734e+27,1.61296015748e+27,1.61296361913e+27,1.61295859844e+27,1.61294356206e+27,1.61292316511e+27,1.61291091761e+27,1.61290926782e+27,1.61291662382e+27,1.61292609554e+27,1.61293619815e+27,1.61294505267e+27,1.61295341333e+27,1.61296351658e+27,1.61296900375e+27,1.61296527686e+27,1.61295074424e+27,1.61293184857e+27,1.61291781088e+27,1.6129165557e+27,1.61292430003e+27,1.61293449806e+27,1.61294563792e+27,1.6129530504e+27,1.61296167133e+27,1.61297216455e+27,1.61297649295e+27,1.61297189537e+27,1.61295736277e+27,1.61293852862e+27,1.61292672108e+27,1.61292600409e+27,1.61293353738e+27,1.612944211e+27,1.61295353604e+27,1.6129599662e+27,1.6129707269e+27,1.61297958641e+27,1.61298439238e+27,1.61298032919e+27,1.6129650935e+27,1.61294529772e+27,1.61293372226e+27,1.61293288326e+27,1.6129410787e+27,1.61295124541e+27,1.6129596381e+27
1.50825433993e+27,1.50826117421e+27,1.50827045528e+27,1.50827596319e+27,1.50827366941e+27,1.50825925205e+27,1.50823901096e+27,1.50822607549e+27,1.50822699282e+27,1.50823628078e+27,1.50824585945e+27,1.50825216799e+27,1.50826032985e+27,1.50826777553e+27,1.50827699854e+27,1.50828517807e+27,1.50828305563e+27,1.50827024872e+27,1.50825095876e+27,1.50823862524e+27,1.50823881968e+27,1.50824916051e+27,1.50826097379e+27,1.50826870908e+27,1.50827426521e+27,1.50828158541e+27,1.50829105487e+27,1.50829853228e+27,1.50829502655e+27,1.50827997529e+27,1.50826256927e+27,1.50824726472e+27,1.50824831476e+27,1.50825822424e+27,1.50826841431e+27,1.50827613013e+27,1.50828158411e+27,1.50829040458e+27,1.50830019117e+27,1.50830656266e+27,1.50830345451e+27,1.5082892282e+27,1.50827095278e+27,1.50825708045e+27,1.50825728023e+27,1.50826748825e+27,1.5082796205e+27,1.50828641818e+27
