9.32556217278e+13,9.32593215843e+13,9.32622309701e+13,9.32611503455e+13,9.32587940544e+13,9.32567238657e+13,9.32556458399e+13,9.32558568749e+13,9.32557655647e+13,9.32572671505e+13,9.32576948358e+13,9.32558374016e+13,9.32562434746e+13,9.32583317518e+13,9.326172343e+13,9.32605228602e+13,9.3259841562e+13,9.32578160542e+13,9.32524481327e+13,9.32459392897e+13,9.32453489854e+13,9.32454022924e+13,9.32417442996e+13,9.32422948616e+13,9.32445737358e+13,9.32482182278e+13,9.32538973384e+13,9.32580821322e+13,9.32577334088e+13,9.32507499239e+13,9.32514475736e+13,9.32521807508e+13,9.32536846614e+13,9.3254425505e+13,9.32553168451e+13,9.32564327599e+13,9.32533642816e+13,9.32524850845e+13,9.3255608095e+13,9.32577370851e+13,9.32581735337e+13,9.3252836464e+13,9.32471576109e+13,9.32439120246e+13,9.32425307051e+13,9.32455435757e+13,9.32484707239e+13,9.32512755344e+13
3.46826174801e+23,3.46830180803e+23,3.46833823466e+23,3.46838820695e+23,3.4683887327e+23,3.46839581279e+23,3.46837019874e+23,3.4683344636e+23,3.46826534627e+23,3.46827004203e+23,3.46821257693e+23,3.46822184802e+23,3.46822130445e+23,3.46821137786e+23,3.46827425996e+23,3.46833136598e+23,3.46834568234e+23,3.46838352286e+23,3.46846544721e+23,3.46836247899e+23,3.4683668057e+23,3.46840310472e+23,3.46838409406e+23,3.4684698469e+23,3.46849984155e+23,3.46844006677e+23,3.46852512971e+23,3.46863573798e+23,3.4686712616e+23,3.46864370447e+23,3.46861919577e+23,3.46858896761e+23,3.46847325589e+23,3.46842118516e+23,3.46840790225e+23,3.46837360999e+23,3.46837395131e+23,3.46844385913e+23,3.46852569342e+23,3.46866622472e+23,3.468721522e+23,3.46869738864e+23,3.46877532662e+23,3.46869301275e+23,3.46862737503e+23,3.46867740634e+23,3.46861143488e+23,3.46855277509e+23
3.18623704781e+23,3.1860356815e+23,3.18606899052e+23,3.18607152472e+23,3.18603646944e+23,3.18603672123e+23,3.18615181083e+23,3.18621842907e+23,3.18641174576e+23,3.18647366263e+23,3.18652666974e+23,3.18650183284e+23,3.18640425848e+23,3.18630012493e+23,3.1861782683e+23,3.18607214297e+23,3.18604399044e+23,3.1860404852e+23,3.18609663194e+23,3.18616813077e+23,3.1863064182e+23,3.18649915127e+23,3.18649210987e+23,3.18634904724e+23,3.18630294581e+23,3.18621421145e+23,3.18613443266e+23,3.18623575001e+23,3.18621526061e+23,3.18621810215e+23,3.18620500035e+23,3.18618249128e+23,3.18621699964e+23,3.18626496454e+23,3.18635948105e+23,3.18637782729e+23,3.18648633574e+23,3.18636074746e+23,3.18616832857e+23,3.18612727012e+23,3.18618044936e+23,3.18615940637e+23,3.18614962146e+23,3.18617327504e+23,3.18630864357e+23,3.18635113352e+23,3.18639225207e+23,3.18633816281e+23
3.06032415531e+23,3.06476322627e+23,3.06885684233e+23,3.07029514044e+23,3.06719448342e+23,3.06139576071e+23,3.05496484969e+23,3.0486360376e+23,3.04502765885e+23,3.04490053952e+23,3.04753408283e+23,3.05211141341e+23,3.05998692991e+23,3.06585077701e+23,3.07024012703e+23,3.07030407761e+23,3.06700385868e+23,3.06164157413e+23,3.05765207988e+23,3.05158070152e+23,3.04874144441e+23,3.04866888321e+23,3.05237989678e+23,3.05562595992e+23,3.06175770002e+23,3.06782398301e+23,3.07110252787e+23,3.07174798504e+23,3.06787443859e+23,3.06269077384e+23,3.05922694906e+23,3.05572130681e+23,3.05423743244e+23,3.05585010578e+23,3.05938512386e+23,3.06293197374e+23,3.06825008611e+23,3.07216422207e+23,3.07594451158e+23,3.07714240747e+23,3.07418379266e+23,3.0681810937e+23,3.06362441869e+23,3.05731381525e+23,3.05308376622e+23,3.0531888805e+23,3.05441542898e+23,3.05646858606e+23
3.93793132514e+23,3.93810846051e+23,3.93813737218e+23,3.93782637007e+23,3.93780354279e+23,3.93788307929e+23,3.93781515927e+23,3.93759332974e+23,3.93750954843e+23,3.93751986208e+23,3.93760467194e+23,3.93781106124e+23,3.93816554092e+23,3.93823592531e+23,3.93819400984e+23,3.93808786892e+23,3.93795724533e+23,3.93785944601e+23,3.9376391372e+23,3.93745593182e+23,3.93727333875e+23,3.93719104738e+23,3.93737982298e+23,3.93752516095e+23,3.93776378231e+23,3.9377516149e+23,3.93771318699e+23,3.93758475336e+23,3.93748192563e+23,3.93747598551e+23,3.93724071708e+23,3.93700859691e+23,3.93691643861e+23,3.93701755932e+23,3.93712542523e+23,3.93717637745e+23,3.93737626152e+23,3.93766206352e+23,3.93768832007e+23,3.93761982266e+23,3.93771367577e+23,3.93790479848e+23,3.93793820775e+23,3.93774724969e+23,3.93762941735e+23,3.93762661419e+23,3.93769897741e+23,3.93785241525e+23
3.58968866259e+23,3.58950030534e+23,3.58952070497e+23,3.58956106015e+23,3.58978130006e+23,3.5900161976e+23,3.59033294283e+23,3.59062002321e+23,3.5908075658e+23,3.59067172537e+23,3.5904559883e+23,3.59016998609e+23,3.58999252016e+23,3.5897877293e+23,3.58977583611e+23,3.58972422544e+23,3.58993733195e+23,3.59023533226e+23,3.59042910572e+23,3.5906239597e+23,3.59080414216e+23,3.59073572292e+23,3.59054044855e+23,3.59028337016e+23,3.58989915714e+23,3.58979797286e+23,3.58976139775e+23,3.58988843433e+23,3.59005005588e+23,3.59033032952e+23,3.59049407665e+23,3.59071297785e+23,3.59090214248e+23,3.59082948841e+23,3.59060262729e+23,3.59033394108e+23,3.59015026664e+23,3.58988686724e+23,3.5897190699e+23,3.58986819183e+23,3.59012778093e+23,3.5904021874e+23,3.59065091428e+23,3.5908013029e+23,3.59092497729e+23,3.59086979715e+23,3.59063001177e+23,3.59039930352e+23
2.80915816379e+23,2.80927256273e+23,2.80937770399e+23,2.80924703407e+23,2.80915200514e+23,2.80897668367e+23,2.80879759003e+23,2.80882158665e+23,2.80894568445e+23,2.80902193529e+23,2.80908219044e+23,2.80914223515e+23,2.80928590434e+23,2.80938365565e+23,2.80932176741e+23,2.80947039974e+23,2.80934813515e+23,2.80924003808e+23,2.80901151704e+23,2.80896784971e+23,2.80901946363e+23,2.80916364724e+23,2.80922537526e+23,2.80936242619e+23,2.80942487012e+23,2.80930474548e+23,2.80919794526e+23,2.80926980973e+23,2.80926020159e+23,2.80920743812e+23,2.8092231654e+23,2.80910448204e+23,2.80899720919e+23,2.80908950668e+23,2.80926048535e+23,2.80923827971e+23,2.80925162611e+23,2.80924388607e+23,2.80936242132e+23,2.80935068109e+23,2.80927079258e+23,2.80912963027e+23,2.80895022495e+23,2.80883761943e+23,2.80891097029e+23,2.80892144324e+23,2.80904662006e+23,2.8090433485e+23
5.9977602547e+23,5.99363403662e+23,5.99413132531e+23,6.00011008017e+23,6.00747716825e+23,6.01386422889e+23,6.02052087602e+23,6.02533502831e+23,6.02858061717e+23,6.02641641166e+23,6.01805162365e+23,6.00860102353e+23,5.99876380878e+23,5.99122485415e+23,5.98979828726e+23,5.99475660769e+23,6.00125932884e+23,6.00878241346e+23,6.01580655319e+23,6.02142816088e+23,6.02305141332e+23,6.01827631099e+23,6.01057318218e+23,6.00028657201e+23,5.9925384194e+23,5.98713697045e+23,5.98552347198e+23,5.98911043174e+23,5.99604711055e+23,6.00376130369e+23,6.01069778564e+23,6.01484645833e+23,6.01736368544e+23,6.01527693638e+23,6.00910140104e+23,6.00175350162e+23,5.99145286438e+23,5.98570628493e+23,5.98472194705e+23,5.98815905606e+23,5.99484941814e+23,6.00151479902e+23,6.00775464811e+23,6.01311656171e+23,6.01585733711e+23,6.01215635804e+23,6.00735862303e+23,5.99905610418e+23
1.15240245466e+23,1.15173722737e+23,1.15156160586e+23,1.15239217175e+23,1.15336704525e+23,1.15409038379e+23,1.15511443837e+23,1.1562224741e+23,1.15658928401e+23,1.15662463186e+23,1.15599389884e+23,1.15471449335e+23,1.15337924332e+23,1.15204063974e+23,1.15205829207e+23,1.15334528305e+23,1.15431565339e+23,1.15513499227e+23,1.15531450616e+23,1.15563902829e+23,1.15662965598e+23,1.15711049328e+23,1.15600611355e+23,1.15458135389e+23,1.15261106134e+23,1.15088850707e+23,1.15062425553e+23,1.15197878178e+23,1.15418467162e+23,1.15650948635e+23,1.1573424686e+23,1.15769447258e+23,1.15764666325e+23,1.15688918936e+23,1.15580122914e+23,1.1545760783e+23,1.15235068466e+23,1.15151874051e+23,1.15207115619e+23,1.1531849302e+23,1.15463001042e+23,1.1565957784e+23,1.15767537348e+23,1.15795968548e+23,1.15727204826e+23,1.15668196971e+23,1.15562194849e+23,1.15453342305e+23
