8.44107362637e+14,8.44110215184e+14,8.44116654017e+14,8.44131833039e+14,8.44134755372e+14,8.44117848822e+14,8.44100296039e+14,8.44083035078e+14,8.44080680923e+14,8.44086075344e+14,8.44091479851e+14,8.44093992265e+14,8.44119297029e+14,8.44131210661e+14,8.44136391051e+14,8.44154295895e+14,8.44156751759e+14,8.4413831997e+14,8.4411484212e+14,8.4411060382e+14,8.44119261806e+14,8.44130055706e+14,8.4414871468e+14,8.44149173039e+14,8.44149848076e+14,8.44164862388e+14,8.44179183501e+14,8.44190749104e+14,8.44181848774e+14,8.44157556381e+14,8.44124537469e+14,8.44108199967e+14,8.44101286968e+14,8.44108718906e+14,8.44117320389e+14,8.44123023294e+14,8.44131758581e+14,8.44145776272e+14,8.44157816052e+14,8.44167140293e+14,8.44178098228e+14,8.44157467231e+14,8.44130043927e+14,8.44115097432e+14,8.44110922712e+14,8.44119108494e+14,8.44129034376e+14,8.44130457499e+14
4.49134008619e+24,4.49134494663e+24,4.49139904903e+24,4.49141682377e+24,4.49136366904e+24,4.49129827455e+24,4.49126311816e+24,4.49122618847e+24,4.49123082429e+24,4.49125273867e+24,4.49121911251e+24,4.49124605734e+24,4.49132563392e+24,4.4913636877e+24,4.49138070589e+24,4.49142237902e+24,4.49142872054e+24,4.49140367298e+24,4.49131859765e+24,4.49125067851e+24,4.49124568746e+24,4.49129193988e+24,4.4912814647e+24,4.49128694647e+24,4.49132909792e+24,4.49140492466e+24,4.49143536647e+24,4.49142333703e+24,4.49140547215e+24,4.49136448828e+24,4.49133161908e+24,4.49127877252e+24,4.49126755888e+24,4.49130687025e+24,4.49134267603e+24,4.49131946689e+24,4.49135667301e+24,4.49145579492e+24,4.4915143648e+24,4.49154613852e+24,4.491541571e+24,4.49148142691e+24,4.4914011969e+24,4.49136484838e+24,4.49139715564e+24,4.49145635236e+24,4.4914616942e+24,4.49147542043e+24
3.22750093777e+24,3.22750297855e+24,3.22750649124e+24,3.22749316925e+24,3.22745987375e+24,3.22741420131e+24,3.22748393765e+24,3.22753235257e+24,3.22759514982e+24,3.22762778291e+24,3.22765147837e+24,3.22762591185e+24,3.22757333235e+24,3.22754097489e+24,3.22752063175e+24,3.2274743292e+24,3.22745188043e+24,3.2274544987e+24,3.22745512518e+24,3.22748884244e+24,3.22758249066e+24,3.22758221963e+24,3.22757931191e+24,3.22755201328e+24,3.22750728932e+24,3.22748268135e+24,3.22749817665e+24,3.2275044375e+24,3.22746973959e+24,3.22743870136e+24,3.22748345459e+24,3.22751559313e+24,3.2275344223e+24,3.22758486829e+24,3.22758261302e+24,3.22759518707e+24,3.22759413989e+24,3.22761185362e+24,3.22760237437e+24,3.22763664888e+24,3.22759835262e+24,3.22756369392e+24,3.22756976992e+24,3.22764024905e+24,3.22769838002e+24,3.22769305412e+24,3.22767006936e+24,3.22766246873e+24
8.22589255997e+24,8.22649920143e+24,8.22553758348e+24,8.22654412674e+24,8.22616694701e+24,8.22300961055e+24,8.22043067684e+24,8.21754822852e+24,8.21644647201e+24,8.21838775592e+24,8.22040341971e+24,8.22393275835e+24,8.23035552646e+24,8.23247096361e+24,8.23153302438e+24,8.2300874559e+24,8.22707029678e+24,8.22372503889e+24,8.2198077346e+24,8.21576568819e+24,8.21447333815e+24,8.21645246376e+24,8.21773321765e+24,8.22255162748e+24,8.22797217183e+24,8.23078714335e+24,8.22763709939e+24,8.22497828789e+24,8.2217253569e+24,8.21680497963e+24,8.2143715559e+24,8.2100554629e+24,8.20853183233e+24,8.21061839952e+24,8.21234247773e+24,8.21793174493e+24,8.22270134525e+24,8.22367516202e+24,8.22268105785e+24,8.22064145153e+24,8.21836990449e+24,8.21467072081e+24,8.21035764157e+24,8.20835700534e+24,8.2096603101e+24,8.21205602464e+24,8.21546534155e+24,8.22066545738e+24
3.86287968287e+24,3.86289967544e+24,3.86298225024e+24,3.86305678114e+24,3.86307059306e+24,3.86302702408e+24,3.86285311925e+24,3.86268383355e+24,3.86264092247e+24,3.86273094067e+24,3.86290955231e+24,3.8630038212e+24,3.86301545088e+24,3.86299135663e+24,3.86298882266e+24,3.86301691322e+24,3.86299597326e+24,3.86294255698e+24,3.86275644983e+24,3.86259004842e+24,3.86252965888e+24,3.86261614981e+24,3.86277978155e+24,3.86283446256e+24,3.86283231114e+24,3.86285008134e+24,3.86288400499e+24,3.86297088518e+24,3.86301814908e+24,3.86295920854e+24,3.8627413963e+24,3.86257920166e+24,3.86251882466e+24,3.86262893376e+24,3.86276896702e+24,3.86282563903e+24,3.86283499185e+24,3.86287756254e+24,3.8629657046e+24,3.8630367611e+24,3.8631016754e+24,3.86301270221e+24,3.86284041515e+24,3.86272564302e+24,3.86272284027e+24,3.86281363205e+24,3.863015588e+24,3.86311474207e+24
2.99422515804e+24,2.99420220694e+24,2.99420883709e+24,2.99421252399e+24,2.9941942842e+24,2.99419613073e+24,2.9942443901e+24,2.99436934563e+24,2.99446069249e+24,2.99447545902e+24,2.99447989288e+24,2.99441368216e+24,2.99430282294e+24,2.99421870945e+24,2.99419052044e+24,2.99420123678e+24,2.99421904081e+24,2.9942328583e+24,2.99429957819e+24,2.99446043599e+24,2.99457355007e+24,2.99459531702e+24,2.9945240638e+24,2.99441757696e+24,2.99429469852e+24,2.99424424923e+24,2.99428164428e+24,2.99436129491e+24,2.99441456256e+24,2.99442225084e+24,2.99445163662e+24,2.99450074428e+24,2.99456427877e+24,2.99456205652e+24,2.99453863023e+24,2.99447120017e+24,2.99438220299e+24,2.99432531991e+24,2.99433185572e+24,2.99433260906e+24,2.99434452784e+24,2.99435160753e+24,2.99444987814e+24,2.9945609517e+24,2.99464756063e+24,2.9946681615e+24,2.99464223166e+24,2.99460970048e+24
4.15942835777e+24,4.15942533773e+24,4.15935084971e+24,4.15942798507e+24,4.15936271682e+24,4.15930155204e+24,4.15915145946e+24,4.15916342189e+24,4.15920683233e+24,4.15929598958e+24,4.15942004157e+24,4.15959803525e+24,4.15963245361e+24,4.15959526399e+24,4.15956542907e+24,4.15970930042e+24,4.15971623625e+24,4.1596460803e+24,4.15945452413e+24,4.1594048175e+24,4.15948838325e+24,4.15958484871e+24,4.1596025109e+24,4.15961801963e+24,4.15959830492e+24,4.1595054792e+24,4.15960655386e+24,4.15953173173e+24,4.15941078741e+24,4.15919492944e+24,4.15902179487e+24,4.15897399332e+24,4.1590587667e+24,4.15910535383e+24,4.15927088343e+24,4.15949410537e+24,4.15946766256e+24,4.15969564309e+24,4.15959401819e+24,4.15969612706e+24,4.15954279018e+24,4.15942828622e+24,4.15930161802e+24,4.15919088346e+24,4.15930603506e+24,4.15934648199e+24,4.15949607696e+24,4.15960735709e+24
3.33396134759e+24,3.33335572028e+24,3.33338920824e+24,3.33420173739e+24,3.33531596651e+24,3.33579094556e+24,3.33615603964e+24,3.33681911324e+24,3.33763332456e+24,3.3381326635e+24,3.33768232105e+24,3.33676878226e+24,3.33565492101e+24,3.33512705971e+24,3.33489315266e+24,3.33544627718e+24,3.33636149191e+24,3.33690903049e+24,3.33710951105e+24,3.33777480932e+24,3.33878500657e+24,3.33891331461e+24,3.33869052855e+24,3.33759416937e+24,3.33631516747e+24,3.33564220646e+24,3.33595791571e+24,3.33665214826e+24,3.33745621628e+24,3.33815909835e+24,3.3382896369e+24,3.33869763204e+24,3.33929891318e+24,3.33978434799e+24,3.33941128081e+24,3.33840007523e+24,3.33729501e+24,3.33623913996e+24,3.33593548871e+24,3.33638287405e+24,3.33705783751e+24,3.33758611012e+24,3.3377606957e+24,3.3380612048e+24,3.3382693962e+24,3.33832012756e+24,3.33770308786e+24,3.33693146726e+24
3.38575040405e+24,3.38548208172e+24,3.38574835282e+24,3.38624887038e+24,3.38698751897e+24,3.38712411207e+24,3.38657958445e+24,3.38674453486e+24,3.38750351924e+24,3.38810603037e+24,3.38826366151e+24,3.38770713394e+24,3.38689809624e+24,3.38680109086e+24,3.38695036653e+24,3.38719069267e+24,3.38755549124e+24,3.38755237425e+24,3.38724748132e+24,3.38740432811e+24,3.38836330421e+24,3.38890807472e+24,3.38847244863e+24,3.38750087435e+24,3.38660098761e+24,3.38601050546e+24,3.38574700692e+24,3.38588464089e+24,3.38611758196e+24,3.38598851758e+24,3.38554967419e+24,3.3854835836e+24,3.38681271819e+24,3.38789271527e+24,3.38794559941e+24,3.38732698303e+24,3.38636147253e+24,3.38576793835e+24,3.3857883612e+24,3.38643344052e+24,3.38686113793e+24,3.38646154383e+24,3.3861236525e+24,3.38631998586e+24,3.38733160469e+24,3.38758266064e+24,3.38738141087e+24,3.38655764286e+24
