{\rtf1\ansi\ansicpg1252\cocoartf1348\cocoasubrtf170
{\fonttbl\f0\fnil\fcharset0 Monaco;}
{\colortbl;\red255\green255\blue255;}
\margl1440\margr1440\vieww16080\viewh16640\viewkind0
\pard\tx560\tx1120\tx1680\tx2240\tx2800\tx3360\tx3920\tx4480\tx5040\tx5600\tx6160\tx6720\pardirnatural

\f0\fs22 \cf0 \CocoaLigature0 1.45119768533e+27, 1.45120601998e+27, 1.4512180296e+27, 1.45122479397e+27, 1.4512209273e+27, 1.45120540843e+27, 1.45118470487e+27, 1.45116989716e+27, 1.45117123867e+27, 1.45118085747e+27, 1.45119231642e+27, 1.45120207741e+27, 1.45120998428e+27, 1.45121763566e+27, 1.45122661621e+27, 1.45123066646e+27, 1.45122767719e+27, 1.45121353365e+27, 1.4511930879e+27, 1.45117995823e+27, 1.45118062721e+27, 1.45119032247e+27, 1.45120284002e+27, 1.451211433e+27, 1.45122012432e+27, 1.45122917027e+27, 1.45123859128e+27, 1.45124384875e+27, 1.45124095415e+27, 1.4512256097e+27, 1.45120463025e+27, 1.45119054142e+27, 1.45119069869e+27, 1.45120126132e+27, 1.45121419117e+27, 1.45122328914e+27, 1.45123103969e+27, 1.45123990956e+27, 1.45125169781e+27, 1.4512578704e+27, 1.45125314525e+27, 1.45123640447e+27, 1.45121493336e+27, 1.45120156317e+27, 1.45120247784e+27, 1.45121140746e+27, 1.45122381266e+27, 1.45123248851e+27, 1.45123842944e+27, 1.4512484632e+27, 1.45125870338e+27, 1.45126326528e+27, 1.45126157824e+27, 1.45124803606e+27, 1.45122826145e+27, 1.45121570844e+27, 1.45121537476e+27, 1.45122446245e+27, 1.45123698625e+27, 1.45124640419e+27, 1.45125363627e+27, 1.45126306882e+27, 1.45127360057e+27, 1.45127851842e+27, 1.4512750056e+27, 1.45125961902e+27, 1.45123953403e+27, 1.45122646364e+27, 1.45122699189e+27, 1.45123756105e+27, 1.45124882271e+27, 1.45125778192e+27, 1.45126451126e+27, 1.4512740675e+27, 1.45128508361e+27, 1.45129153407e+27, 1.45128990405e+27, 1.45127477768e+27, 1.45125417754e+27, 1.45124177686e+27, 1.45124153503e+27, 1.45125213898e+27, 1.45126536203e+27, 1.4512769356e+27, 1.45128513363e+27, 1.45129461452e+27, 1.45130505125e+27, 1.45131090279e+27, 1.45130784778e+27, 1.45129271812e+27, 1.45127332864e+27, 1.45125808686e+27, 1.45125925799e+27, 1.45126896437e+27, 1.45128113295e+27, 1.45129201598e+27, 1.45129932525e+27, 1.45130847346e+27, 1.45131835819e+27, 1.45132492594e+27, 1.45132199721e+27, 1.45130681098e+27, 1.45128698891e+27, 1.45127153415e+27, 1.45127054361e+27, 1.45128160975e+27, 1.45129280577e+27, 1.45130078953e+27, 1.45130929163e+27, 1.45131957761e+27, 1.4513309313e+27, 1.45133677514e+27, 1.45133276215e+27, 1.45131751695e+27, 1.45129613086e+27, 1.45128137918e+27, 1.45128323267e+27, 1.451293303e+27, 1.4513045286e+27, 1.45131562979e+27, 1.45132264448e+27, 1.45133319048e+27, 1.45134497539e+27, 1.45134958232e+27, 1.45134411464e+27, 1.45132748569e+27, 1.45130451541e+27, 1.45129189434e+27, 1.45129289475e+27, 1.45130213201e+27, 1.45131837652e+27, 1.45132731897e+27, 1.45133308932e+27, 1.45134162624e+27, 1.45135505133e+27, 1.45136073088e+27, 1.45135740614e+27, 1.45134247622e+27, 1.45132292677e+27, 1.45130874711e+27, 1.45130903522e+27, 1.45131829423e+27, 1.45133093171e+27, 1.45134023531e+27, 1.45134710025e+27, 1.45135649004e+27, 1.45136840142e+27, 1.45137474171e+27, 1.45137100118e+27, 1.45135667509e+27, 1.45133351398e+27, 1.45131972417e+27, 1.45132152237e+27, 1.45133096035e+27, 1.4513454411e+27, 1.45135493286e+27, 1.45136352437e+27, 1.45137343936e+27, 1.45138576678e+27, 1.4513911599e+27, 1.4513880391e+27, 1.45137296883e+27, 1.45135321418e+27, 1.45133965708e+27, 1.45134049069e+27, 1.45135128761e+27, 1.45136317413e+27, 1.45137582212e+27, 1.45138340177e+27, 1.4513938948e+27, 1.45140490287e+27, 1.45141114897e+27, 1.4514084745e+27, 1.45139419873e+27, 1.45137121552e+27, 1.4513569646e+27, 1.45135870494e+27, 1.45136868952e+27, 1.45138081831e+27, 1.45139148879e+27, 1.45139868375e+27, 1.4514067653e+27, 1.45141854708e+27, 1.45142396534e+27, 1.45142030553e+27, 1.45140607186e+27, 1.45138402541e+27, 1.45136924806e+27, 1.45137038656e+27, 1.45137930156e+27, 1.45139136654e+27, 1.45140223222e+27, 1.45141113647e+27, 1.45142017234e+27, 1.45143078379e+27, 1.45143661701e+27, 1.45143242366e+27, 1.451417889e+27, 1.4513970173e+27, 1.45138066867e+27, 1.4513820713e+27, 1.45139186396e+27, 1.45140448254e+27, 1.45141553385e+27, 1.45142438895e+27, 1.4514330561e+27, 1.45144585661e+27, 1.45145069309e+27, 1.45144723781e+27, 1.45143036267e+27, 1.45140994119e+27, 1.45139508488e+27, 1.45139498629e+27, 1.45140745608e+27, 1.45142073178e+27, 1.45143066257e+27}