mass,variance,min,max,median,lower,upper
4470694844.378440,1.667021e-09,7.474093e-03,7.651909e-03,7.573575e-03,7.540720e-03,7.600819e-03
5190582321.078645,1.487679e-09,6.513055e-03,6.688391e-03,6.610648e-03,6.583434e-03,6.643287e-03
6026388686.709801,1.164276e-09,5.164956e-03,5.370893e-03,5.259772e-03,5.237580e-03,5.284653e-03
6996779620.625876,9.783102e-10,4.289932e-03,4.446009e-03,4.366001e-03,4.342017e-03,4.385841e-03
8123426417.477409,5.820211e-10,3.663852e-03,3.796063e-03,3.730705e-03,3.711388e-03,3.745661e-03
9431489962.273127,4.018956e-10,3.014614e-03,3.108898e-03,3.054884e-03,3.043226e-03,3.069663e-03
10950182636.858450,4.378043e-10,2.541539e-03,2.641612e-03,2.591930e-03,2.577230e-03,2.609072e-03
12713420706.610928,2.781674e-10,2.119741e-03,2.214025e-03,2.160247e-03,2.149633e-03,2.168793e-03
14760581756.803946,2.054402e-10,1.820347e-03,1.886512e-03,1.847679e-03,1.840079e-03,1.860450e-03
17137384094.117058,1.664840e-10,1.531705e-03,1.596215e-03,1.565614e-03,1.557344e-03,1.574879e-03
19896907752.563347,1.139318e-10,1.300957e-03,1.357197e-03,1.322381e-03,1.317006e-03,1.330731e-03
23100779905.488281,9.136199e-11,1.119832e-03,1.168628e-03,1.147637e-03,1.140173e-03,1.152904e-03
26820551156.903412,9.201483e-11,9.519399e-04,1.005698e-03,9.775786e-04,9.717892e-04,9.857506e-04
31139293448.234135,5.055397e-11,8.179570e-04,8.595460e-04,8.410554e-04,8.368021e-04,8.453089e-04
36153455265.801094,5.472162e-11,6.980341e-04,7.377327e-04,7.178440e-04,7.124879e-04,7.220187e-04
41975015580.528801,4.417209e-11,5.987875e-04,6.357293e-04,6.171796e-04,6.124832e-04,6.218269e-04
48733984622.827385,4.051458e-11,5.144280e-04,5.532995e-04,5.308510e-04,5.268043e-04,5.358723e-04
56581307341.305473,2.628143e-11,4.416472e-04,4.697670e-04,4.573612e-04,4.540432e-04,4.598424e-04
65692234386.918442,2.610751e-11,3.721746e-04,4.036027e-04,3.903304e-04,3.862247e-04,3.928509e-04
76270235905.197418,2.331515e-11,3.117996e-04,3.374383e-04,3.258595e-04,3.225513e-04,3.286754e-04
88551545541.474762,1.467549e-11,2.638304e-04,2.853338e-04,2.745821e-04,2.721010e-04,2.762362e-04
102810436138.293900,1.027317e-11,2.249589e-04,2.456352e-04,2.365376e-04,2.340565e-04,2.381917e-04
119365344944.719406,9.266163e-12,1.935308e-04,2.094417e-04,2.026284e-04,2.001472e-04,2.042825e-04
138585985129.041321,7.676814e-12,1.637568e-04,1.800616e-04,1.728347e-04,1.710428e-04,1.745085e-04
160901602413.009247,5.285385e-12,1.381181e-04,1.508784e-04,1.439075e-04,1.422534e-04,1.455616e-04
186810561219.214996,5.653509e-12,1.133065e-04,1.257123e-04,1.190959e-04,1.174418e-04,1.207500e-04
216891474414.655182,3.802190e-12,9.676539e-05,1.066900e-04,1.000736e-04,9.841950e-05,1.009007e-04
251816125205.902893,3.480261e-12,7.620717e-05,8.601368e-05,8.187841e-05,8.022430e-05,8.270546e-05
292364469764.655273,2.619960e-12,6.285615e-05,7.195375e-05,6.699142e-05,6.616437e-05,6.864553e-05
339442055630.378296,1.463743e-12,5.293150e-05,5.954793e-05,5.623971e-05,5.541266e-05,5.706677e-05
394100244887.231873,9.980956e-13,4.714211e-05,5.293150e-05,5.045033e-05,4.962328e-05,5.127739e-05
457559693750.207458,1.470724e-12,3.969862e-05,4.548800e-05,4.300684e-05,4.217979e-05,4.383389e-05
531237612919.244629,1.138091e-12,3.308218e-05,3.887157e-05,3.639040e-05,3.556335e-05,3.688270e-05
616779417494.330322,1.095090e-12,2.729280e-05,3.308218e-05,3.060102e-05,2.978382e-05,3.142808e-05
716095473274.546875,7.902440e-13,1.984931e-05,2.410273e-05,2.233047e-05,2.150342e-05,2.315753e-05
831403760079.284912,5.457817e-13,1.488698e-05,1.811643e-05,1.571404e-05,1.488698e-05,1.628510e-05
965279404871.975586,3.264477e-13,1.240582e-05,1.488698e-05,1.405993e-05,1.323287e-05,1.405993e-05
1120712190886.819824,2.628491e-13,9.924655e-06,1.240582e-05,1.157876e-05,1.157876e-05,1.157876e-05
1301173327083.387695,1.581183e-13,9.097601e-06,9.924655e-06,9.924655e-06,9.097601e-06,9.924655e-06
1510692969060.623047,5.466398e-43,8.270546e-06,8.270546e-06,8.270546e-06,8.270546e-06,8.270546e-06
1753950222669.260254,2.490897e-13,5.789382e-06,8.270546e-06,8.270546e-06,7.443491e-06,8.270546e-06
2036377640331.814697,3.061065e-13,4.135273e-06,5.789382e-06,4.962328e-06,4.135273e-06,4.962328e-06
2364282543738.604492,1.431762e-13,3.308218e-06,4.135273e-06,3.308218e-06,3.308218e-06,4.135273e-06
2744987882363.646973,1.673339e-13,2.481164e-06,3.308218e-06,3.308218e-06,2.481164e-06,3.308218e-06
3186995773528.958984,3.331087e-43,2.481164e-06,2.481164e-06,2.481164e-06,2.481164e-06,2.481164e-06
3700177376282.468262,1.089009e-43,1.654109e-06,1.654109e-06,1.654109e-06,1.654109e-06,1.654109e-06
4295993339455.286621,4.982725e-14,8.270546e-07,1.654109e-06,8.270546e-07,8.270546e-07,8.270546e-07
4987749747063.829102,4.825581e-15,0.000000e+00,8.270546e-07,0.000000e+00,0.000000e+00,0.000000e+00
5790895276967.485352,0.000000e+00,0.000000e+00,0.000000e+00,0.000000e+00,0.000000e+00,0.000000e+00
